[
  {
    "projectId": "backend_drugstore_microservices",
    "endpoints": [
      {
        "id": "users-list",
        "method": "GET",
        "path": "/api/v1/users",
        "summary": "List all users",
        "description": "Retrieve a paginated list of users with optional filtering and sorting",
        "tags": ["Users"],
        "authenticated": true,
        "rateLimit": "1000 req/hour",
        "parameters": [
          {
            "name": "page",
            "in": "query",
            "type": "integer",
            "required": false,
            "description": "Page number for pagination",
            "example": 1
          },
          {
            "name": "limit",
            "in": "query",
            "type": "integer",
            "required": false,
            "description": "Number of items per page (max 100)",
            "example": 20
          },
          {
            "name": "sort",
            "in": "query",
            "type": "string",
            "required": false,
            "description": "Sort field and direction (e.g., \"createdAt:desc\")",
            "example": "createdAt:desc"
          }
        ],
        "responses": [
          {
            "status": 200,
            "description": "Successful response",
            "example": {
              "data": [
                {
                  "id": "123e4567-e89b-12d3-a456-426614174000",
                  "email": "john.doe@example.com",
                  "name": "John Doe",
                  "role": "user",
                  "createdAt": "2024-01-15T10:30:00Z"
                }
              ],
              "meta": {
                "page": 1,
                "limit": 20,
                "total": 156,
                "totalPages": 8
              }
            }
          },
          {
            "status": 401,
            "description": "Unauthorized - Invalid or missing token",
            "example": {
              "error": "Unauthorized",
              "message": "Invalid or expired authentication token"
            }
          }
        ]
      },
      {
        "id": "users-create",
        "method": "POST",
        "path": "/api/v1/users",
        "summary": "Create a new user",
        "description": "Register a new user account with email verification",
        "tags": ["Users"],
        "authenticated": false,
        "rateLimit": "10 req/hour",
        "requestBody": {
          "contentType": "application/json",
          "schema": {
            "type": "object",
            "required": ["email", "password", "name"],
            "properties": {
              "email": { "type": "string", "format": "email" },
              "password": { "type": "string", "minLength": 8 },
              "name": { "type": "string", "minLength": 2 }
            }
          },
          "example": {
            "email": "jane.doe@example.com",
            "password": "SecureP@ssw0rd",
            "name": "Jane Doe"
          }
        },
        "responses": [
          {
            "status": 201,
            "description": "User created successfully",
            "example": {
              "data": {
                "id": "123e4567-e89b-12d3-a456-426614174001",
                "email": "jane.doe@example.com",
                "name": "Jane Doe",
                "role": "user",
                "createdAt": "2024-01-15T10:30:00Z"
              }
            }
          },
          {
            "status": 400,
            "description": "Validation error",
            "example": {
              "error": "ValidationError",
              "message": "Invalid input data",
              "details": [
                {
                  "field": "email",
                  "message": "Email already exists"
                }
              ]
            }
          }
        ]
      },
      {
        "id": "users-get",
        "method": "GET",
        "path": "/api/v1/users/{userId}",
        "summary": "Get user by ID",
        "description": "Retrieve detailed information about a specific user",
        "tags": ["Users"],
        "authenticated": true,
        "rateLimit": "1000 req/hour",
        "parameters": [
          {
            "name": "userId",
            "in": "path",
            "type": "string",
            "required": true,
            "description": "User UUID",
            "example": "123e4567-e89b-12d3-a456-426614174000"
          }
        ],
        "responses": [
          {
            "status": 200,
            "description": "User found",
            "example": {
              "data": {
                "id": "123e4567-e89b-12d3-a456-426614174000",
                "email": "john.doe@example.com",
                "name": "John Doe",
                "role": "user",
                "profile": {
                  "avatar": "https://cdn.example.com/avatars/123.jpg",
                  "bio": "Software engineer"
                },
                "createdAt": "2024-01-15T10:30:00Z",
                "updatedAt": "2024-01-20T14:22:00Z"
              }
            }
          },
          {
            "status": 404,
            "description": "User not found",
            "example": {
              "error": "NotFound",
              "message": "User with ID 123e4567-e89b-12d3-a456-426614174000 not found"
            }
          }
        ]
      },
      {
        "id": "products-list",
        "method": "GET",
        "path": "/api/v1/products",
        "summary": "List products",
        "description": "Get paginated list of products with filtering and search",
        "tags": ["Products"],
        "authenticated": false,
        "rateLimit": "5000 req/hour",
        "parameters": [
          {
            "name": "search",
            "in": "query",
            "type": "string",
            "required": false,
            "description": "Search products by name or description",
            "example": "laptop"
          },
          {
            "name": "category",
            "in": "query",
            "type": "string",
            "required": false,
            "description": "Filter by category slug",
            "example": "electronics"
          }
        ],
        "responses": [
          {
            "status": 200,
            "description": "Products retrieved successfully",
            "example": {
              "data": [
                {
                  "id": "prod_001",
                  "name": "MacBook Pro 16\"",
                  "price": 2499.99,
                  "currency": "USD",
                  "category": "electronics",
                  "inStock": true
                }
              ]
            }
          }
        ]
      },
      {
        "id": "orders-create",
        "method": "POST",
        "path": "/api/v1/orders",
        "summary": "Create new order",
        "description": "Place a new order with products and shipping details",
        "tags": ["Orders"],
        "authenticated": true,
        "rateLimit": "100 req/hour",
        "requestBody": {
          "contentType": "application/json",
          "schema": {
            "type": "object",
            "required": ["items", "shippingAddress"],
            "properties": {
              "items": {
                "type": "array",
                "items": {
                  "type": "object",
                  "properties": {
                    "productId": { "type": "string" },
                    "quantity": { "type": "integer" }
                  }
                }
              },
              "shippingAddress": {
                "type": "object",
                "properties": {
                  "street": { "type": "string" },
                  "city": { "type": "string" },
                  "zipCode": { "type": "string" }
                }
              }
            }
          },
          "example": {
            "items": [{ "productId": "prod_001", "quantity": 1 }],
            "shippingAddress": {
              "street": "123 Main St",
              "city": "New York",
              "zipCode": "10001"
            }
          }
        },
        "responses": [
          {
            "status": 201,
            "description": "Order created",
            "example": {
              "data": {
                "id": "order_001",
                "status": "pending",
                "total": 2499.99,
                "createdAt": "2024-01-15T10:30:00Z"
              }
            }
          }
        ]
      }
    ]
  }
]
